…
filter(vaccinations, fips == "48037")

## # A tibble: 282 x 27
##    date       fips  mmwr_week recip_county recip_state series_complete_pop_pct
##    <chr>      <chr>     <dbl> <chr>        <chr>                         <dbl>
##  1 09/20/2021 48037        38 Bowie County TX                                0
##  2 09/19/2021 48037        38 Bowie County TX                                0
##  3 09/18/2021 48037        37 Bowie County TX                                0
##  4 09/17/2021 48037        37 Bowie County TX                                0
##  5 09/16/2021 48037        37 Bowie County TX                                0
##  6 09/15/2021 48037        37 Bowie County TX                                0
##  7 09/14/2021 48037        37 Bowie County TX                                0
##  8 09/13/2021 48037        37 Bowie County TX                                0
##  9 09/12/2021 48037        37 Bowie County TX                                0
## 10 09/11/2021 48037        36 Bowie County TX                                0
## # … with 272 more rows, and 21 more variables: series_complete_yes <dbl>,
## #   series_complete_12plus <dbl>, series_complete_12plus_pop_pct <dbl>,
## #   series_complete_18plus <dbl>, series_complete_18plus_pop_pct <dbl>,
## #   series_complete_65plus <dbl>, series_complete_65plus_pop_pct <dbl>,
## #   completeness_pct <dbl>, administered_dose1_recip <dbl>,
## #   administered_dose1_pop_pct <dbl>, administered_dose1_recip_12plus <dbl>,
## #   administered_dose1_recip_12plus_pop_pct <dbl>,
## #   administered_dose1_recip_18plus <dbl>,
## #   administered_dose1_recip_18plus_pop_pct <dbl>,
## #   administered_dose1_recip_65plus <dbl>,
## #   administered_dose1_recip_65plus_pop_pct <dbl>, svi_ctgy <chr>,
## #   series_complete_pop_pct_svi <chr>,
## #   series_complete_12plus_pop_pct_svi <chr>,
## #   series_complete_18plus_pop_pct_svi <chr>,
## #   series_complete_65plus_pop_pct_svi <chr>

county_vaccination_rate <-
  vaccinations %>%
  group_by(fips) %>% 
  summarise(complete_rate_max = max(series_complete_pop_pct))

county_vaccination_rate

## # A tibble: 3,225 x 2
##    fips  complete_rate_max
##    <chr>             <dbl>
##  1 01001              32.6
##  2 01003              41.3
##  3 01005              34.1
##  4 01007              28.7
##  5 01009              24.9
##  6 01011              41.8
##  7 01013              32.4
##  8 01015              37.9
##  9 01017              25.7
## 10 01019              26.3
## # … with 3,215 more rows

vaccinations_cmplt_pct <-
  select(vaccinations, fips,recip_county,recip_state,completeness_pct)
library(scales)

TRUMP_Supportor <-
  filter(election2020_results,party == "REPUBLICAN") %>% 
  mutate(Trump_Vote = 100*(candidatevotes/totalvotes))

TRUMP_Supportor

## # A tibble: 5,117 x 13
##     year state  state_po county_name fips  office candidate party candidatevotes
##    <dbl> <chr>  <chr>    <chr>       <chr> <chr>  <chr>     <chr>          <dbl>
##  1  2020 ALABA… AL       AUTAUGA     01001 PRESI… DONALD J… REPU…          19838
##  2  2020 ALABA… AL       BALDWIN     01003 PRESI… DONALD J… REPU…          83544
##  3  2020 ALABA… AL       BARBOUR     01005 PRESI… DONALD J… REPU…           5622
##  4  2020 ALABA… AL       BIBB        01007 PRESI… DONALD J… REPU…           7525
##  5  2020 ALABA… AL       BLOUNT      01009 PRESI… DONALD J… REPU…          24711
##  6  2020 ALABA… AL       BULLOCK     01011 PRESI… DONALD J… REPU…           1146
##  7  2020 ALABA… AL       BUTLER      01013 PRESI… DONALD J… REPU…           5458
##  8  2020 ALABA… AL       CALHOUN     01015 PRESI… DONALD J… REPU…          35101
##  9  2020 ALABA… AL       CHAMBERS    01017 PRESI… DONALD J… REPU…           8753
## 10  2020 ALABA… AL       CHEROKEE    01019 PRESI… DONALD J… REPU…          10583
## # … with 5,107 more rows, and 4 more variables: totalvotes <dbl>,
## #   version <dbl>, mode <chr>, Trump_Vote <dbl>

TRUMP_Supportor_2 <-
  TRUMP_Supportor %>%
  group_by(fips) %>% 
  summarise(Trump_Vote_all = sum(Trump_Vote))

TRUMP_Supportor

## # A tibble: 5,117 x 13
##     year state  state_po county_name fips  office candidate party candidatevotes
##    <dbl> <chr>  <chr>    <chr>       <chr> <chr>  <chr>     <chr>          <dbl>
##  1  2020 ALABA… AL       AUTAUGA     01001 PRESI… DONALD J… REPU…          19838
##  2  2020 ALABA… AL       BALDWIN     01003 PRESI… DONALD J… REPU…          83544
##  3  2020 ALABA… AL       BARBOUR     01005 PRESI… DONALD J… REPU…           5622
##  4  2020 ALABA… AL       BIBB        01007 PRESI… DONALD J… REPU…           7525
##  5  2020 ALABA… AL       BLOUNT      01009 PRESI… DONALD J… REPU…          24711
##  6  2020 ALABA… AL       BULLOCK     01011 PRESI… DONALD J… REPU…           1146
##  7  2020 ALABA… AL       BUTLER      01013 PRESI… DONALD J… REPU…           5458
##  8  2020 ALABA… AL       CALHOUN     01015 PRESI… DONALD J… REPU…          35101
##  9  2020 ALABA… AL       CHAMBERS    01017 PRESI… DONALD J… REPU…           8753
## 10  2020 ALABA… AL       CHEROKEE    01019 PRESI… DONALD J… REPU…          10583
## # … with 5,107 more rows, and 4 more variables: totalvotes <dbl>,
## #   version <dbl>, mode <chr>, Trump_Vote <dbl>
…
